-------------------------------------------------------------------------------
Test set: poste.AppTest
-------------------------------------------------------------------------------
Tests run: 1, Failures: 0, Errors: 0, Skipped: 0, Time elapsed: 0.044 s - in poste.AppTest
